/* XPM */
static char * C:\Users\Clement\Desktop\cage_xpm[] = {
"64 64 33 1",
" 	c #980088",
".	c #9C4C00",
"+	c #B45400",
"@	c #E46C00",
"#	c #FCA85C",
"$	c #FC7800",
"%	c #CC6000",
"&	c #FC8820",
"*	c #FC9840",
"=	c #744C28",
"-	c #5C4020",
";	c #A8A8A8",
">	c #D0D0D0",
",	c #989898",
"'	c #FCFCFC",
")	c #8C8C8C",
"!	c #383838",
"~	c #545454",
"{	c #C0C0C0",
"]	c #707070",
"^	c #7C7C7C",
"/	c #B4B4B4",
"(	c #885830",
"_	c #9C6038",
":	c #484848",
"<	c #646464",
"[	c #ECECEC",
"}	c #000000",
"|	c #403018",
"1	c #A0643C",
"2	c #DCDCDC",
"3	c #2C2C2C",
"4	c #202020",
"                          ...........                           ",
"                            ++++...                             ",
"                              +@.                               ",
"                              +@.                               ",
"                             @#$%.                              ",
"                          &&***@@@@@@                           ",
"                        @&&**$&$.$$&.@@                         ",
"                       @$&*#$.&$..@$@.+@                        ",
"                      $%&##$  &$.  @$%.=.                       ",
"                     $%%##$   &$.   @%..=.                      ",
"                     @% ##$   &%.   @%. =.                      ",
"                    @$*#*########***$$$$$.-                     ",
"                    @$$&&*****&&&&$$$@@%+.-                     ",
"                    @.++%%@@@@%%%+++..-----                     ",
"                    @%. &@.   @%.   ..= .=-                     ",
"                    @$. **.   @@.   %.= .=-                     ",
"                    @$. **.   @$.   %.= .=-                     ",
"                    @$. *#.   @$.   %.= .=-                     ",
"                    @$. *#.   @$.   %.= .=-                     ",
"                    @$. *#.   @$.   %.= .=-                     ",
"                    @$. *#.   @$.   %.= .=-                     ",
"                    @$. *#. ;;@$.   %.= .=-                     ",
"                    @$. *#.>>,@$.   %.= .=-                     ",
"                    @$. *#.'>>@$.   %.= .=-                     ",
"                    @$. *#.'>>@$.   %., .=-                     ",
"                    @$. **.>)!@$.~  {{],.=-                     ",
"                    @$. **.>~!@$.^ /{,]].=-                     ",
"                    *&>>*$.!>;@%.^~ {,]](=-                     ",
"                    &>>)########***$$$__==-                     ",
"                    &&&&*******&&$$$$%%(---                     ",
"                    @%%%@@@@@%++===-----.=-                     ",
"                    @$. &@. ;;$%.^]~..= .=-                     ",
"                    @$. **.;;:&$.{,^@.= +=-                     ",
"                    @$. *#.;]]&$.^]~@.= +=-                     ",
"                    @$. *#.] ]&$.{,]@.= +=-                     ",
"                    @$. *#.   &$.,] @.= +=-                     ",
"                    @$. *#.   &$.] ;@.= +=-                     ",
"                    @$. *#.   &$. ><@.=/+=-                     ",
"                    @$. *#.   &$.>^<@.=,+=-                     ",
"                    @$. *#.   &$.;^^@.=^+=-                     ",
"                    @/[[**.>/,&$.>/^@.=<+=-                     ",
"                    >[[>**.^^^&$.[[/@.=&+=-                     ",
"                    &[{^&*.%%%&@[[[[).=$%_-                     ",
"                    @[{^#######**[/)&$$(==-                     ",
"                    @[{^**###**&&[/%%%_(==-                     ",
"                    }>{^**###**&&[/%%%_==|}                     ",
"                      [^1(((=====[/|||||                        ",
"                      [)         [/                             ",
"                      [)         [/                             ",
"                     /[[)       /[/]                            ",
"                    ,2[2))      2[>;                            ",
"                    /[2/))      /[[>                            ",
"                   ,2[/         ,[[>                            ",
"                   /[2)          [[>                            ",
"                   ,2/           [[>                            ",
"                                 ,>,                            ",
"                                                                ",
"                                                                ",
"                                                                ",
"                                                                ",
"                         <<<<~~~~~~~~~~~~~~~~<<<<               ",
"                       <<~~::!!!!!!!!!!!!!!!!!:~<<              ",
"                     <<~~:!!!!3344444444443!::~<<<              ",
"                       <~~:::!!!!!!!!!!!!::~~<<<                "};
