/* XPM */
static char * C:\Users\Clement\Desktop\zombie\zombie_6_xpm[] = {
"64 64 99 2",
"  	c #980088",
". 	c #BF7B4B",
"+ 	c #A36B3F",
"@ 	c #8F5F37",
"# 	c #DF9363",
"$ 	c #F7AB7B",
"% 	c #FFB383",
"& 	c #CB7F4F",
"* 	c #E79B6B",
"= 	c #FFBB93",
"- 	c #FFC7A7",
"; 	c #D78B5B",
"> 	c #EFA373",
", 	c #CB5707",
"' 	c #FF8F3B",
") 	c #F37317",
"! 	c #DF670F",
"~ 	c #B37347",
"{ 	c #E30000",
"] 	c #AF4300",
"^ 	c #FF7B7B",
"/ 	c #7F532F",
"( 	c #FF7F1B",
"_ 	c #FFA35B",
": 	c #EB6F0F",
"< 	c #875733",
"[ 	c #B34F4F",
"} 	c #C76363",
"| 	c #AF7B1F",
"1 	c #9B633B",
"2 	c #434343",
"3 	c #3B3B3B",
"4 	c #2F2F2F",
"5 	c #C34F00",
"6 	c #D75F0B",
"7 	c #774F2B",
"8 	c #474747",
"9 	c #4B4B4B",
"0 	c #5B5B5B",
"a 	c #4F4F4F",
"b 	c #232323",
"c 	c #732B00",
"d 	c #874307",
"e 	c #636363",
"f 	c #575757",
"g 	c #1B1B1B",
"h 	c #1F170B",
"i 	c #6B0F0F",
"j 	c #831F1F",
"k 	c #373737",
"l 	c #272727",
"m 	c #731313",
"n 	c #5F0707",
"o 	c #5B0707",
"p 	c #932F00",
"q 	c #9F3700",
"r 	c #771717",
"s 	c #8F2B2B",
"t 	c #872300",
"u 	c #332B13",
"v 	c #6B4727",
"w 	c #B74700",
"x 	c #AB6F43",
"y 	c #533F1F",
"z 	c #5F4323",
"A 	c #4B371B",
"B 	c #670B0B",
"C 	c #D70000",
"D 	c #FF0000",
"E 	c #530707",
"F 	c #CF8353",
"G 	c #CB0000",
"H 	c #FF3F3F",
"I 	c #FF5F5F",
"J 	c #8B0000",
"K 	c #7F1B1B",
"L 	c #FF1F1F",
"M 	c #FF9B9B",
"N 	c #D7BB43",
"O 	c #972F2F",
"P 	c #9B3333",
"Q 	c #A73F00",
"R 	c #FFFF73",
"S 	c #FFFF23",
"T 	c #EBDB57",
"U 	c #B30000",
"V 	c #FFFF47",
"W 	c #EF0000",
"X 	c #A73F3F",
"Y 	c #8B2323",
"Z 	c #2B230F",
"` 	c #53573B",
" .	c #373F27",
"..	c #232B0F",
"+.	c #474F33",
"@.	c #131313",
"#.	c #0B0B0B",
"$.	c #430000",
"%.	c #470000",
"                                                                                                                                ",
"                                                                                                                                ",
"                                                                                                                                ",
"                                                                                                                                ",
"                                                                                                                                ",
"                                                                                                                                ",
"                                                                                                                                ",
"                                                                                                                                ",
"                                                                                                                                ",
"                                                            . . . + @                                                           ",
"                                                          # $ % % # & @                                                         ",
"                                                        * = - - $ * ; . @                                                       ",
"                                                      . * = - - $ ; . . +                                                       ",
"                                                      . ; * > $ > ; . ; #                                                       ",
"                                                      , ' ) ' ) ' ! * ~ ~                                                       ",
"                                                      + { ] . ] { ^ * ~ /                                                       ",
"                                                      . ( ) _ ) ( % * &                                                         ",
"                                                        ! , : , : ( . &                                                         ",
"                                                        < [ } } [ | 1 1 2 2 3 3                                                 ",
"                                                  4 4 2 2 5 6 ! , , 7 8 8 9 0 0 a 4 b                                           ",
"                                                3 b b 4 4 c c d d d 2 9 9 0 e f 8 3 4 b                                         ",
"                                              4 4 b g g g h g i j 2 k 3 8 ] ] a 8 2 k l                                         ",
"                                            4 4 4 m b n o g i j j 2 k 4 p , 5 q 8 2 k l b                                       ",
"                                            4 4 m 4 m r s m s s k 3 4 k t q q t k 4 b g b                                       ",
"                                              u g b 4 r s m s s q p b v w ! ! . x @ 7 y                                         ",
"                                              z A b b i m B j j p t A < ( ' ' . & + < z                                         ",
"                                          C D C A u g u B E B B E u A 1 ( ' ' ; F 1 /                                           ",
"                                      G D H I H C J u u K K K m t b 4 < , ) ( F x / z                                           ",
"                                      L I M N ^ H C J g O P P s q t 4 q Q ] 8 3 z z A                                           ",
"                                    C H M R S T ^ L U g i i m m 1 ( ' ( @ Q 4 4 4 g g                                           ",
"                                    D I N S V S N I W J b v + ' ( ' ' F ~ v b b g g b                                           ",
"                                      L ^ T S T ^ L C X P ! ' ) ! ~ ~ @ 7 A l l g g b                                           ",
"                                      { H ^ N ^ H { X Y K 7 < P O r z A g Z g g b l l `                                         ",
"                                        { L I L { s K m E E K A B B E E Z Z Z Z Z Z Z  .                                        ",
"                                        @ C H C r r o o Z Z E E g g h h 4 Z Z Z Z Z b Z                                         ",
"                                          o o k b Z Z Z Z 4 .. .+. ...4 b b h h h h h                                           ",
"                                                2 @.@.@.@.@... . ...@.b b b @.#.#.#.@.@.                                        ",
"                                                  4 @.@.@.@.#.....@.#.l @.@.#.#.#.#.@.b g                                       ",
"                                                  #.@.@.@.#.@.#.#.#.@.@.#.#.#.#.@.@.g b b                                       ",
"                                                  #.g @.@.@.#.@.#.#.@.g @.@.@.@.@.g @.4 g                                       ",
"                                                  @.g g g g @.#.@.@.g g @.@.i g g m b b g                                       ",
"                                                  g b g g g @.@.#.#.@.@.@.@.m r m m b 4 g                                       ",
"                                                  #.g b @.g g #.@.#.#.@.g @.m r r m b b @.                                      ",
"                                                  #.b b b g @.E E #.#.@.g g i m m m i b @.                                      ",
"                                                  b o g @.@.g #.#.#.#.@.g i Y j g j i b                                         ",
"                                                  o o g g g #.E #.#.#.g m j j 4 m Y K g                                         ",
"                                                  o m o g o E @.#.#.#.@.m r 4 4 4 j m b                                         ",
"                                                  o r o g o @.@.#.#.#.@.b t p Q p 3 g b                                         ",
"                                                  b o g o @.#.#.#.#.#.@.b 4 t p t 4 b b                                         ",
"                                                    l t t t l @.@.@.@.@.g 4 4 4 4 b g                                           ",
"                                                    g 4 4 b @.@.@.@.@.#.g g l l j m l                                           ",
"                                                      g g @.@.@.@.@.@.@.#.#.#.#.g b g                                           ",
"                                                        @.@.@.$.@.@.@.@.#.t p Q p 4 4 g                                         ",
"                                                          @.$.@.@.$.@.@.g g g g g g l g                                         ",
"                                                            @.g @.@.@.$.g b t K 4 4 b g                                         ",
"                                                            @.@.E @.$.$.@.g b t 4 B b g                                         ",
"                                                            o o @.E $.$.$.g r t K g g                                           ",
"                                                          m %.$.$.$.$.$.$.  $.r O j $.                                          ",
"                                                        m i i o #.E $.$.    $.n o o $.                                          ",
"                                                      i m o o $.$.$.$.      $.m K $.$.                                          ",
"                                                      $.$.$.$.$.$.$.        j Y Y r m $.                                        ",
"                                                                          Y Y Y r m m $.                                        ",
"                                                                        m m m m n n n $.                                        ",
"                                                                        $.$.$.$.$.$.$.                                          "};
