/* XPM */
static char * C:\Users\Clement\Desktop\zombie\zombie_3_xpm[] = {
"64 64 91 1",
" 	c #980088",
".	c #9B633B",
"+	c #BF7B4B",
"@	c #CF8353",
"#	c #B37347",
"$	c #DF9363",
"%	c #F7AB7B",
"&	c #E79B6B",
"*	c #774F2B",
"=	c #7F532F",
"-	c #FFC7A7",
";	c #FFBB93",
">	c #8F5F37",
",	c #27531B",
"'	c #FFDBC7",
")	c #FFB383",
"!	c #FF7B7B",
"~	c #E30000",
"{	c #FF9B9B",
"]	c #EFA373",
"^	c #FFBF9B",
"/	c #2F2F2F",
"(	c #A36B3F",
"_	c #C39B2F",
":	c #3B3B3B",
"<	c #373737",
"[	c #5B5B5B",
"}	c #5F0707",
"|	c #232323",
"1	c #434343",
"2	c #272727",
"3	c #D75F0B",
"4	c #B34F4F",
"5	c #9B3333",
"6	c #AF7B1F",
"7	c #4F4F4F",
"8	c #874307",
"9	c #F37317",
"0	c #1B1B1B",
"a	c #474747",
"b	c #470000",
"c	c #332B13",
"d	c #1F170B",
"e	c #972F2F",
"f	c #831F1F",
"g	c #6B0F0F",
"h	c #8B2323",
"i	c #771717",
"j	c #8F2B2B",
"k	c #636363",
"l	c #7F1B1B",
"m	c #0B0B0B",
"n	c #5F4323",
"o	c #6B4727",
"p	c #875733",
"q	c #AB6F43",
"r	c #2B230F",
"s	c #131313",
"t	c #5B0707",
"u	c #BB5757",
"v	c #AF4747",
"w	c #4F0000",
"x	c #A33B3B",
"y	c #533F1F",
"z	c #6B6B6B",
"A	c #838383",
"B	c #A73F3F",
"C	c #4B371B",
"D	c #CB7F4F",
"E	c #6F6F6F",
"F	c #575757",
"G	c #670B0B",
"H	c #DF8787",
"I	c #D78B5B",
"J	c #BF5B5B",
"K	c #530707",
"L	c #CB6B6B",
"M	c #937B63",
"N	c #373F27",
"O	c #3F2F17",
"P	c #C76363",
"Q	c #676B4F",
"R	c #474F33",
"S	c #000000",
"T	c #731313",
"U	c #171F07",
"V	c #170F07",
"W	c #232B0F",
"X	c #2F371F",
"Y	c #0F1700",
"Z	c #430000",
"                                                                ",
"                                                                ",
"                                                                ",
"                                                                ",
"                                                                ",
"                                                                ",
"                                                                ",
"                                                                ",
"                                                                ",
"                            .+@@@+.                             ",
"                           .#$%%&$*.                            ",
"                           =@%---%@=                            ",
"                           =#;%;%;#>                            ",
"                          &#,-$'$-,#&                           ",
"                          )$!~,%,~!$)                           ",
"                          @+){]^]{)+@                           ",
"                          /*(]_+_](*                            ",
"                        :/<*+_[}[_+*|:                          ",
"                    :1111<<2(34546(|/:::/                       ",
"                   ::77111/1/83968/0/:1111:/                    ",
"                  /:1:a1:1:/b0cdddd|/1/111::/                   ",
"                  |/a1:|7e1fgg000gf::::/1:::/                   ",
"                  0/11/c77e1ehiiejjf:::/:://|7k/                ",
"                  00000d::heehlie5j<::////7aa<m/                ",
"                 n*>>*o0//hhflgilfh2:::/>(p||mm                 ",
"                 nq@@>nrs|/|i0tigg22/a>(uvnmm                   ",
"                 n(++*n0msswwww22221>(uuxxr*(y                  ",
"                 n>>>n0m||cc/:17[zAzpBBejiCC>*                  ",
"                |o>D(=n|||y7kkkkEk7aniiiii}oy0                  ",
"                2o#$$+n|C>*kF171<//7rlGGG}gyoy0                 ",
"                |*@HI(pCJBo1</////2/|c0KKcKKby0                 ",
"                |*.#LvJ*B5</|20/20/2dMNN0ccbc0                  ",
"                OO*#PPv45B5jf:|0y/22cQRNr00cSs                  ",
"                OO**4x5eiigtt/Cyy222cNNN SSSs                   ",
"                 rOOTTglii}}K/O0r2220rN                         ",
"                 rOOwwggwwww|UUUUUU0|/r                         ",
"                 rOCdV/||00smUWXXWU00//0                        ",
"                  rOV/||222/|YUWWUU||0||c                       ",
"                  rV |0::/g/<|YYYY200smsc                       ",
"                     /0/|glg|00sms0000smd                       ",
"                     0ss0he0s0ssmms0}mKsd                       ",
"                     0sm0GlGmsmmmdd0Z}K0d                       ",
"                      0s00GKs0smmmmZZZZ0c                       ",
"                      KmK00t00smsZgZZZZm                        ",
"                      KKK00000mmm0Z}Kwwd                        ",
"                      KK0|222mmsmm}bZZZm                        ",
"                       K0/////00sGmmZ}Zd                        ",
"                       00||/||/ |mssmmmd                        ",
"                        0||0|0s |mmmss|                         ",
"                        s000g}0smmms00|                         ",
"                        |mmmmm0smmms000                         ",
"                        /000|00s0smZZ/s                         ",
"                        |s000sssZ0sms|                          ",
"                        000|K00 |Z000s                          ",
"                        0K0||0/ Zs0Kw                           ",
"                         00K|K/ ZbZZw                           ",
"                         00|K00 ZbbZw                           ",
"                          rii}  ZbbZw                           ",
"                          }55T  ZKKbw                           ",
"                         ZTTTTZ bTlTw                           ",
"                         ZeBBxi bbbbb                           ",
"                         ZixBeiZ                                ",
"                         ZifefiZ                                ",
"                          ZGGGZ                                 "};
