/* XPM */
static char * C:\Users\Clement\Desktop\light_xpm[] = {
"64 64 38 1",
" 	c #980088",
".	c #232323",
"+	c #272727",
"@	c #373737",
"#	c #000000",
"$	c #1B1B1B",
"%	c #434343",
"&	c #474747",
"*	c #D7BB43",
"=	c #EBDB57",
"-	c #FFFF73",
";	c #FFFF8F",
">	c #FFFFB3",
",	c #FFFFD7",
"'	c #FFFFFF",
")	c #FFFF6B",
"!	c #3B3B3B",
"~	c #3F472B",
"{	c #5B5B5B",
"]	c #636363",
"^	c #2F2F2F",
"/	c #4B4B4B",
"(	c #131313",
"_	c #1F170B",
":	c #13230B",
"<	c #070707",
"[	c #4F4F4F",
"}	c #332B13",
"|	c #575757",
"1	c #6B6B6B",
"2	c #777777",
"3	c #838383",
"4	c #8B8B8B",
"5	c #6F6F6F",
"6	c #0B0B0B",
"7	c #7F7F7F",
"8	c #979797",
"9	c #939393",
"                                                                ",
"                                                                ",
"                                                                ",
"                                                                ",
"                                                                ",
"                                                                ",
"                                                                ",
"                                                                ",
"                                                                ",
"                                                                ",
"                                                                ",
"                                                                ",
"                                                                ",
"                                                                ",
"                                                                ",
"                                                                ",
"                              .+@+.                             ",
"                            #$.+@+.$#                           ",
"                           ##$+@%@+$##                          ",
"                           #$+@%&%@+$#                          ",
"                           *=-;>,>;-=*                          ",
"                           *=-;,',;-=*                          ",
"                           *=-;,',;-=*                          ",
"                           *=-)>,>)-=*                          ",
"                           !~!{]{&@!!~                          ",
"                           ^+.%/%.((_^                          ",
"                           ^^.@/%.((_^                          ",
"                           ^:(%/%.<((^                          ",
"                           ^+.%/%.((_^                          ",
"                           ^^.@/%.((_^                          ",
"                           ^._@&~.((_^                          ",
"                           ^.(@&%.((_^                          ",
"                           ^._@&%.((_^                          ",
"                           ^._@&%.((_^                          ",
"                           ^..@&%.((_^                          ",
"                           ^..@[%.(((^                          ",
"                           ^}_@[%.(((^                          ",
"                           ^..@[%.(((^                          ",
"                           ^..@[%.(((^                          ",
"                           ^..![%.(((^                          ",
"                           ^..![%.(((^                          ",
"                           ^..![%.(((^                          ",
"                           ^..![%.(((^                          ",
"                           ^..%[%.(((^                          ",
"                           ^+.&|%.(((^                          ",
"                           ^^^[]%.(((^                          ",
"                           ^^@[]&.(((^                          ",
"                           ^^%{1[.(((^                          ",
"                           ^^%]2{+(((}                          ",
"                           ^^%]3{^(((+                          ",
"                         ^.@%|245&^++@+.                        ",
"                          .%[]]|[|&&&@+                         ",
"                          ^$$@]2[.###6^                         ",
"                         ^^.%2784]@^^^^+                        ",
"                          .&21]{{|/%!@}                         ",
"                          ^.#^]7].####^                         ",
"                         ^^.%2489]&^^^..                        ",
"                          .&2]]{||&&%@^                         ",
"                        @!^.#^|2|+6###^@@                       ",
"                      !!@!%%%2484]/^^^^@@!!                     ",
"                     !!!!%/[{1249421|&%!!!!!                    ",
"                     !%%%/[|{]]151]]{|[/%%!!                    ",
"                       &//|{]]15251]]{|//&                      ",
"                           ]]152 251]]                          "};
