/* XPM */
static char *apcfb_8ssp2[] = {
/* columns rows colors chars-per-pixel */
"64 64 256 2 ",
"   c black",
".  c #0000A8",
"X  c #00A800",
"o  c #00A8A8",
"O  c #A80000",
"+  c #A800A8",
"@  c #A85400",
"#  c gray66",
"$  c gray33",
"%  c #5454FC",
"&  c #54FC54",
"*  c #54FCFC",
"=  c #FC5454",
"-  c #FC54FC",
";  c #FCFC54",
":  c gray99",
">  c #ECECEC",
",  c gainsboro",
"<  c #D0D0D0",
"1  c #C0C0C0",
"2  c #B4B4B4",
"3  c gray66",
"4  c #989898",
"5  c gray55",
"6  c #7C7C7C",
"7  c gray44",
"8  c #646464",
"9  c gray33",
"0  c #484848",
"q  c gray22",
"w  c #2C2C2C",
"e  c #202020",
"r  c #FC0000",
"t  c #EC0000",
"y  c #E00000",
"u  c #D40000",
"i  c #C80000",
"p  c #BC0000",
"a  c #B00000",
"s  c #A40000",
"d  c #980000",
"f  c #880000",
"g  c #7C0000",
"h  c #700000",
"j  c #640000",
"k  c #580000",
"l  c #4C0000",
"z  c #400000",
"x  c #FCD8D8",
"c  c #FCB8B8",
"v  c #FC9C9C",
"b  c #FC7C7C",
"n  c #FC5C5C",
"m  c #FC4040",
"M  c #FC2020",
"N  c #FC0000",
"B  c #FCA85C",
"V  c #FC9840",
"C  c #FC8820",
"Z  c #FC7800",
"A  c #E46C00",
"S  c #CC6000",
"D  c #B45400",
"F  c #9C4C00",
"G  c #FCFCD8",
"H  c #FCFCB8",
"J  c #FCFC9C",
"K  c #FCFC7C",
"L  c #FCF85C",
"P  c #FCF440",
"I  c #FCF420",
"U  c #FCF400",
"Y  c #E4D800",
"T  c #CCC400",
"R  c #B4AC00",
"E  c #9C9C00",
"W  c #848400",
"Q  c #706C00",
"!  c #585400",
"~  c #404000",
"^  c #D0FC5C",
"/  c #C4FC40",
"(  c #B4FC20",
")  c #A0FC00",
"_  c #90E400",
"`  c #80CC00",
"'  c #74B400",
"]  c #609C00",
"[  c #D8FCD8",
"{  c #BCFCB8",
"}  c #9CFC9C",
"|  c #80FC7C",
" . c #60FC5C",
".. c #40FC40",
"X. c #20FC20",
"o. c #00FC00",
"O. c #00FC00",
"+. c #00EC00",
"@. c #00E000",
"#. c #00D400",
"$. c #04C800",
"%. c #04BC00",
"&. c #04B000",
"*. c #04A400",
"=. c #049800",
"-. c #048800",
";. c #047C00",
":. c #047000",
">. c #046400",
",. c #045800",
"<. c #044C00",
"1. c #044000",
"2. c #D8FCFC",
"3. c #B8FCFC",
"4. c #9CFCFC",
"5. c #7CFCF8",
"6. c #5CFCFC",
"7. c #40FCFC",
"8. c #20FCFC",
"9. c #00FCFC",
"0. c #00E4E4",
"q. c #00CCCC",
"w. c #00B4B4",
"e. c #009C9C",
"r. c #008484",
"t. c #007070",
"y. c #005858",
"u. c #004040",
"i. c #5CBCFC",
"p. c #40B0FC",
"a. c #20A8FC",
"s. c #009CFC",
"d. c #008CE4",
"f. c #007CCC",
"g. c #006CB4",
"h. c #005C9C",
"j. c #D8D8FC",
"k. c #B8BCFC",
"l. c #9C9CFC",
"z. c #7C80FC",
"x. c #5C60FC",
"c. c #4040FC",
"v. c #2024FC",
"b. c #0004FC",
"n. c #0000FC",
"m. c #0000EC",
"M. c #0000E0",
"N. c #0000D4",
"B. c #0000C8",
"V. c #0000BC",
"C. c #0000B0",
"Z. c #0000A4",
"A. c #000098",
"S. c #000088",
"D. c #00007C",
"F. c #000070",
"G. c #000064",
"H. c #000058",
"J. c #00004C",
"K. c #000040",
"L. c #282828",
"P. c #FCE034",
"I. c #FCD424",
"U. c #FCCC18",
"Y. c #FCC008",
"T. c #FCB400",
"R. c #B420FC",
"E. c #A800FC",
"W. c #9800E4",
"Q. c #8000CC",
"!. c #7400B4",
"~. c #60009C",
"^. c #500084",
"/. c #440070",
"(. c #340058",
"). c #280040",
"_. c #FCD8FC",
"`. c #FCB8FC",
"'. c #FC9CFC",
"]. c #FC7CFC",
"[. c #FC5CFC",
"{. c #FC40FC",
"}. c #FC20FC",
"|. c #FC00FC",
" X c #E000E4",
".X c #C800CC",
"XX c #B400B4",
"oX c #9C009C",
"OX c #840084",
"+X c #6C0070",
"@X c #580058",
"#X c #400040",
"$X c #FCE8DC",
"%X c #FCE0D0",
"&X c #FCD8C4",
"*X c #FCD4BC",
"=X c #FCCCB0",
"-X c #FCC4A4",
";X c #FCBC9C",
":X c #FCB890",
">X c #FCB080",
",X c #FCA470",
"<X c #FC9C60",
"1X c #F0945C",
"2X c #E88C58",
"3X c #DC8854",
"4X c #D08050",
"5X c #C87C4C",
"6X c #BC7848",
"7X c #B47044",
"8X c #A86840",
"9X c #A0643C",
"0X c #9C6038",
"qX c #905C34",
"wX c #885830",
"eX c #80502C",
"rX c #744C28",
"tX c #6C4824",
"yX c #5C4020",
"uX c #543C1C",
"iX c #483818",
"pX c #403018",
"aX c #382C14",
"sX c #28200C",
"dX c #600064",
"fX c #006464",
"gX c #006060",
"hX c #00001C",
"jX c #00002C",
"kX c #302410",
"lX c #480048",
"zX c #500050",
"xX c #000034",
"cX c gray11",
"vX c #4C4C4C",
"bX c gray36",
"nX c gray25",
"mX c gray19",
"MX c #343434",
"NX c #D8F4F4",
"BX c #B8E8E8",
"VX c #9CDCDC",
"CX c #74C8C8",
"ZX c #48C0C0",
"AX c #20B4B4",
"SX c #20B0B0",
"DX c #00A4A4",
"FX c #009898",
"GX c #008C8C",
"HX c #008484",
"JX c #007C7C",
"KX c #007878",
"LX c #007474",
"PX c #007070",
"IX c #006C6C",
"UX c #980088",
/* pixels */
"q h h h h h h h h h h h h h h h h h h h h h h h h h h h q q h h h h h h h h h h h h h q q h h h h h h h h h h h h q h h h h h q ",
"e d d d d d d d d d d d d d d d d d d d d d f f f g h h   e d d d d d d d d f g g g g   e d d d d d d d d g g j k   s s s s f   ",
"e d d d g d h d d f h f f h f f f h h d g h h h h j k l   e d d f f g d d f g g g g l   e d a s a s a a a a a f h   s s g f g   ",
"e d f h g f f f h h d f d k f f k g h h f f h h j k k l   e d f d d g f f h g h d j l   e d s a a d a p s a d f h   d d s f l   ",
"e d g d j f j f h h h f g g h k g j f k h j k k l l l k   e d f g g f f h g h j l k l   e d a s d p a s d f g g j   g j h h l   ",
"e d g h d d d k h h h d f f f g g h j k h h h j j k l k   e d d g d d h j j j g k l l   e d a d p M p d a d f j h   f g j k l   ",
"e d f f s s d d d f d d d f f j g l h k h h h h j l l l   e d d d g g h j g g g j k l   e d s a d a a d d s h h j   f h l l l   ",
"e d d f d s s d f h k d d f g g h j j j k h h j k l k k   e d d g h g g g h g h k l l   e d s a s d s s s d h j h   f k l k l   ",
"e d f h f d d g f h f j j g g g k k h g l j j j k k l l   e d f g g j g d d h j h l k   e d s p s s g g d d f j k               ",
"e d g g g d h h h d d j l k l j l g j h j k j j k l l l   e d g g j h h g g j k l k l   e d s a d s g g g f g k l   f s s s d   ",
"e f h g d g g j f d d j j l l l j k h j k j h h j l k l   e f g h j j g g j h k l k l   e d s a a d g g g g h k k   d s f s g   ",
"e f g f h h d g k h l h l l l l k k g z z l h h h l l l   e f g h j j j g l j l j l l   e d s a a s d g g f h k k   f d g f k   ",
"e f h f h k g g h k h k h k l j l j l z z z l j j l k l   e f h g j j k k j k l k k l   e d s a a d f f h g j l l   f d f j l   ",
"e f f h h h j k l l k h k j k k l l l l z z l l l l l l   e g g j j k l l l l k l k l   e d s d a g f g f h h l k   g g h k j   ",
"e f h f k k j k h k j l l k l k k k k l l l l l l l l l   e g k g k k l l l l l l l l   e f a s a a g d g j k l l   h j k l l   ",
"e                                                         e                             e f a s d f f g g k l k l               ",
"d a s d s d d d d d s d d d d e e e e e e e e e e e e e e e e e e e e e e e e e e e e e e f s a f a h f h h k l l   j p p p p p ",
"a s d f d a s d g d d h d f h   z z k h f h f f d d h h l l z z z e e l j f f d g h j j e f a s a f f p f h j k l   g p p u a p ",
"a s f f g d d g h f f h h f f   z k h f f f f d s d d g k j j k l e e j f d h g h g h k   f f d s a f f h h j l k   d p u r u s ",
"s d f s s f f h h h f h h h h   z f f f s d s s h g f k j k l k j e e h d h j k h k l h   g s s a s f g h k l k k   d p p u s p ",
"d g f s a s h h f f h f l h h   z s f s g s d h l j h j l l k j h   e g g d h j j l j k   g a s s j j g h j k k l   s p p s d s ",
"d d g f s s h f h h k k j h h   z d d s s d s f j h j l k k k l j   e j d g g k l h l l   h d d d j j j h j l l l   a p p s p d ",
"s g h g f d f h h f k j h l l   l d s s d p f g h j k k k l j j l   e j j k l l k l k k   h f d d g j j j k l l l   s p s a s d ",
"s d g f h f h f f h j h k h l   j f d d g h g g j j h j k j l l j   e e                   h f f a h h j j j l k l   s p s d f a ",
"s s f g s f f f f h h j l l l   j f d g h f g j l j j f j h j h j   d d a a d d f f g   e f f d f f h j j l k l l   d p p s p p ",
"s d g h g s s k h f g g j l k   j f g h s d f h j h g p s g j k j   d a a d f g j g h   e f a s d f h h j k k k l   d p s p a s ",
"d f h g d s s d f h g g j l k   l g g h f s f f g g f s g h h j h   d f d d g j d j k   e d a s a d f g j k l k k   d p p p s d ",
"s f s f f d s d k h j j j l l   z h h g s m s g d f h f g j g k h   d d f h g d g j j   e d s d a d f h j k k j l   g p p p s s ",
"d g g d d f d d k j l k l l l   z h h g f s d d f d d g f h l h l   d d d f d j j g j   e d d f d g f g h l l l k   g p s p p d ",
"d f g d d d f h j k l k z z l     h g f d g d g d s j s j l k j l   d p s d g j k k k   e d f d g h h h h l l l l   g p p a s s ",
"f g f g d d h k k l l l z z k     k h h f h f d f d s j l k h l l   d f s d g j j j k   e d f a d f g j j l j l l   g p p s f d ",
"f g g h g g h k k j h h k l k   z l k h h h h f d j h f j h l l l   d f f d h k k j l   e d d s a d g j k h h l l   g p s p s f ",
"f g d f j h h j k j h h k l l   z z z l l l l l l l l l l l l l z   d f d k j h j k l   e d d s s d d f h k h k l   g p s p g g ",
"f d f g g h k k l k j j k l l   e e e                               d d g h k k k l l   e d a a d f f f f g k l l   g p p g f g ",
"h f f g h h h h l k z l l k l   e e k k k k k k j j j k k k k l e e d g g j l l k l l   e d a a d f h f f g h j l   j p s p f f ",
"h g g h j h h h l z z z l l l   e e k j h f f h f g g h h k k l   e d d g h k l k l l   e d f a f a h j g h j k l   j p s f f g ",
"h g k j h k h h l z z z z k l   e e k h f f g f h j g j j g j l   e d d h f j k l l l   e d d d s f f j j k k k l   j s s f g g ",
"h f h k h k j l k z l z z l l   e e k f g j f f j g j l j f j j   e d d f d h j k l l   e d a d f f j l l j l l l   j s f g f g ",
"h g f g j h j l l l z z z l l   e e k f h f h h f j g k l j j l   e d f d f g h j k k   e d a f d f j k l l j l l   j s f f f g ",
"h f g h k j h j l l k l l k k   e e k g f f h j k l k l l k l l   e d d g h h j k k l   e f s f f h h j k k l l l   j f f f h f ",
"                                e e k f g h k l l k l l j j j l   e f f h h k j l k l   e f d f h l h l l k l l l   e           ",
"e e z z z z l l j j g g g h j k l l z                             e f d h k j j l l k   e g h l k l j j k l l l l   e j j j j e ",
"e e f d s a a a a a a a a a a a a s s s d d f f h e e e e e e e e e f f h j k l l l l   e g h k k l l l l k l j l   e j l h l e ",
"e e d a a a a a s d s a d d d a d d s s h g g g k   e l l k k j e e f h g j l l l l l   e e                         e l l l j e ",
"e e d a s s d s s a a a f d a a a s d g s k h l k   e l f g s h   e g h g k j k l k k   e e e e e e e e e e e e e e e e e e e e ",
"e e a a a s s a a f f d a a f s g d f f h g k l k   e l d s f l   e h h k j k l l l l   e e a a a a a a a a a a a a a s s s d e ",
"e e a d s d s s s f f f a d g g d h f f f h j l l   e k s s d g   e e                   e e a a a a s s d d s s s d d s a d g   ",
"e e a a s f g s s d f f d a a d d d h f f h l l k   e k d g j l   e g f d s d d d f g g e e a s s a s d p p d s d f a a f f g   ",
"e e a a f d a s g d s s s h d d r d f k j k l k l   e j f j l l   e f d s d f s f s j j   e a a s s d a a p h h f g h f j g h   ",
"e e a a a a d g a g s h h d g d d f h f f h k k k   e j g k l k   e d s s d g h g j l k   e a s a s d s s d h h h f d h h h j   ",
"e e a d a f d d a s f h h h d d j h f h h k l h l   e e           e f d g g h j l k l l   e a a s u u d f d f h h d g g f k l   ",
"e e a s f f a u a d g d h h d d g g h f j j k l l   e e e e e e e e                       e a s d u u p a s d f s h j f f k l   ",
"e e a d a d u m u f f d f g h g g g g h z z l k l   e f f f d d d d d d d f f f g g j j e e a s d f p p d f h f h g f f h k l   ",
"e e a s a s a u a d h d d k k k h g g j z z z l l   e f d f g d g f d d g f d h h j j l   e a d d s f g f g d g h g d g j k l   ",
"e e a d a s s s g g g h j k k k k j j j l z z l l   e f f g g g d d d s f g g g k j l l   e a a d f f g g h g f f f g j k l l   ",
"e e d a s s d h h f d f f h k k k k j k l h l l l   e d g d d s f d f d d d f g h j l k   e a s d f h h h j h g f h k l k j l   ",
"e e a d a s g g s h d d f j h l j h h l k l l l k   e d d g d f g h g f d d f g h l k k   e a s a s d g j l l h j l l z z k l   ",
"e e a d a d f g h k g d d f j k l h h h l k l k l   e f g d f g d h g f f f g h j k l l   e a a d d h h f l l k j l l z z z l   ",
"e e s d g g g d k g k g f f j j k h h h l l j l l   e f d g h h h g j h h g h j k l l l   e s f d f a f h h k j l j l l z z l   ",
"e e s d j k g k d h h f l k l l k l h h l l k k l   e g f d h j h k h j h j j j l k k l   e s a d h f j j h l k l l l k k k l   ",
"e e d d g g k g l k l k j k j k j l l l l l l l l   e g f g h j k j j k l j l l k k l l   e d h f h g f h j k l k l k l l l l   ",
"e e d f h g f j j j j j j k k k k k k k k k k k k   e g h j j j j j j k k k k k k j k j e e d f h g h j j k k k k k k k k k k e ",
"q q h h h h h h h h h h h h h h h h h h h h h h h q q h h h h h h h h h h h h h h h h h q q h h h h h h h h h h h h h h h h h w ",
"$ $ $ $ $ $ $ $ $ $ $ $ $ $ $ $ $ $ $ $ $ $ $ $ $ $ $ $ $ $ $ $ $ $ $ $ $ $ $ $ $ $ $ $ $ $ $ $ $ $ $ $ $ $ $ $ $ $ $ $ $ $ $ $ "
};
