/* XPM */
static char * C:\Users\Clement\Desktop\zombie\zombie_5_xpm[] = {
"64 64 78 1",
" 	c #980088",
".	c #BF7B4B",
"+	c #A36B3F",
"@	c #8F5F37",
"#	c #CB7F4F",
"$	c #DF9363",
"%	c #F7AB7B",
"&	c #D78B5B",
"*	c #E79B6B",
"=	c #FFBB93",
"-	c #FFC7A7",
";	c #EFA373",
">	c #27531B",
",	c #CF8353",
"'	c #37732B",
")	c #E30000",
"!	c #FF7B7B",
"~	c #B37347",
"{	c #FFBF9B",
"]	c #FFB383",
"^	c #774F2B",
"/	c #7F532F",
"(	c #C39B2F",
"_	c #AF7B1F",
":	c #BB5757",
"<	c #D37373",
"[	c #CB6B6B",
"}	c #434343",
"|	c #CB5707",
"1	c #EB6F0F",
"2	c #F37317",
"3	c #DF670F",
"4	c #6B6B6B",
"5	c #2F2F2F",
"6	c #3B3B3B",
"7	c #4B371B",
"8	c #6B4727",
"9	c #875733",
"0	c #874307",
"a	c #474747",
"b	c #4F4F4F",
"c	c #232323",
"d	c #1F170B",
"e	c #272727",
"f	c #2B230F",
"g	c #575757",
"h	c #530707",
"i	c #670B0B",
"j	c #731313",
"k	c #6B0F0F",
"l	c #771717",
"m	c #831F1F",
"n	c #373737",
"o	c #5F4323",
"p	c #9B633B",
"q	c #332B13",
"r	c #533F1F",
"s	c #7F7F7F",
"t	c #5B0707",
"u	c #0B0B0B",
"v	c #BF5B5B",
"w	c #972F2F",
"x	c #A33B3B",
"y	c #8B2323",
"z	c #B34F4F",
"A	c #8F2B2B",
"B	c #53573B",
"C	c #430000",
"D	c #4F0000",
"E	c #AF4747",
"F	c #131313",
"G	c #373F27",
"H	c #5F0707",
"I	c #474F33",
"J	c #43331B",
"K	c #470000",
"L	c #1B1B1B",
"M	c #7F1B1B",
"                                                                ",
"                                                                ",
"                                                                ",
"                                                                ",
"                                                                ",
"                                                                ",
"                                                                ",
"                                                                ",
"                                                                ",
"                             ....+@                             ",
"                            #$%%%&.@                            ",
"                            *=--%*&.@                           ",
"                           .*%=%=;&.+                           ",
"                           >$,-$='..*                           ",
"                            )>.>)!*~~                           ",
"                           .*,{;{]*^/                           ",
"                           +,(.(;.,@                            ",
"                            _:<[:;,@                            ",
"                           }|1213,4}56}66                       ",
"                        55}578980}55aabbba5                     ",
"                       56cdef5ee}55aabgga}6c                    ",
"                      565cddhddij}}5aaaaa}65                    ",
"                     55c5ichhdkjl}ae66}aa}65c                   ",
"                     55cj5ikiijlm6655555nn5cd                   ",
"                      odc55kkijln6nc8~,&..~po                   ",
"                      /8ccchihik55cd.$&&.#p8o                   ",
"                     /p/qdhhihhhhhcc~#$&&./8                    ",
"                     8888cqiijkk5555p~,$,pro                    ",
"                    nabs4ddjlmmm5cd556aaa6o                     ",
"                    cngcgndhthttn/.$#pc555c                     ",
"                   cp~uu5~ccec55~#,[,~/eccc                     ",
"                   ^v^uuc^ved78~.v.~@^8eedc                     ",
"                   ^w75c57xyw~v#zxAo77fc5ceB                    ",
"                   owC777DEEExw7jjtfffFFFFGG                    ",
"                   8mkHHHHAyyyHt7qd5FFFFFcf                     ",
"                    fkHHHkkkk55IIIG5cuuuuu                      ",
"                       }FFFFFFGGGJqccFuuuFF                     ",
"                       5FFFFFFdqqqdeFFuuuFcd                    ",
"                        dFFFFuFuuufFFuuuFFdcc                   ",
"                         uuFFFuFuuFuFuFFFdk5d                   ",
"                         uuucdFuFFuuFFtddjc5d                   ",
"                         ucuccFFuuuFFFFkjjc5d                   ",
"                         uFcqcddFuuuuFFkljccF                   ",
"                         ucccdFDDuuFuutijjkc                    ",
"                          ctuFFuuuuFuhiijjkc                    ",
"                          ituuuuDuuuhiicjyjd                    ",
"                          iituhDFuuKHkcc5mjF                    ",
"                          iktuuhFuuucen}5cdF                    ",
"                          FidtuFuuuFc555ecL                     ",
"                          FeecuFFFFFc555ecL                     ",
"                          FccuuuFFFuFceemje                     ",
"                           FFuuFFFFFuFFLcccd                    ",
"                             FFFFFFFcuFhdc5d                    ",
"                              FFFFhFdccccced                    ",
"                              FdFFCFccckcecd                    ",
"                               CDFCF cccekcF                    ",
"                              khCDCCCckclkd                     ",
"                             ihihCCCC dMAMF                     ",
"                            itthCDCCC dkttF                     ",
"                           tihhCCCCC  HjMHH                     ",
"                           CCCCCCC    mMmljC                    ",
"                                     mmmljjC                    ",
"                                    jjjjHHHC                    ",
"                                    CCCCCCC                     "};
