/* XPM */
static char * C:\Users\Clement\Desktop\texture_game\9_xpm[] = {
"16 18 16 1",
" 	c None",
".	c #980088",
"+	c #2F2F2F",
"@	c #430000",
"#	c #730000",
"$	c #9B0000",
"%	c #B30000",
"&	c #BF0000",
"*	c #670000",
"=	c #CB0000",
"-	c #D70000",
";	c #E30000",
">	c #EF0000",
",	c #7F0000",
"'	c #8B0000",
")	c #A70000",
"................",
"..+++++++++.....",
".@@@@@@@@@+++...",
".@########@@++..",
".@$%%%%%%&$*@+..",
".@%=-;>==&-$@++.",
".@@@@@@@@,;&*@+.",
"....+@@@@,;%'@+.",
"...@@**#',;&'@+.",
"..@#*'%%%&-&'@+.",
".@*'''%;=&-&'@+.",
".@$'$'@@@%=)'@+.",
".@$'$'@@@%=$#@..",
".@*')$,##%&$@+..",
"..@')$)%%)$*@...",
"...@@)==&#@@....",
".....@@@@@......",
"................"};
